{  
  "production": {
    "api_ems": "http://192.168.0.31:8044"      
 
  }, 
  "qa": {
    "api_ems": "http://192.168.0.31:8044"     
 
  },
    "development": {
      "api_ems": "http://192.168.0.31:8044"     
   
    },
   
    "dev": {
      "api_ems": "http://192.168.0.31:8044"      

   
    }
   
  }
  